{
  "package": {
    "dependencies": {
      "@testing-library/jest-dom": "~4.2.0",
      "@testing-library/react": "~9.3.0",
      "eslint-config-prettier": "~6.10.0",
      "eslint-plugin-prettier": "~3.1.0",
      "husky": "~4.2.0",
      "lint-staged": "~10.1.0",
      "node-sass": "~4.13.0",
      "prettier": "~2.0.0",
      "prop-types": "~15.7.0"
    },
    "scripts": {
      "lint": "eslint --ext .js,.jsx src"
    },
    "eslintConfig": {
      "extends": ["react-app", "prettier", "prettier/react"],
      "plugins": ["prettier"],
      "rules": {
        "prettier/prettier": [
          "warn",
          {
            "printWidth": 120,
            "singleQuote": true,
            "trailingComma": "none",
            "jsxBracketSameLine": true,
            "arrowParens": "avoid"
          }
        ]
      }
    },
    "husky": {
      "hooks": {
        "pre-commit": "lint-staged"
      }
    },
    "lint-staged": {
      "*.{js,jsx}": [
        "prettier --write",
        "eslint --fix"
      ]
    }
  }
}
